(0.0, 0.0, 0.0, 1.0)
(0.06262242910851495, 6.030862941101084e-08, 0.02463744919538197, 1.0)
(0.08856148855400953, 4.824690352880868e-07, 0.04925994109281685, 1.0)
(0.10846522890932808, 1.6283329940972927e-06, 0.07385252747487396, 1.0)
(0.1252448582170299, 3.859752282304694e-06, 0.0984002782796427, 1.0)
(0.14002800840280097, 7.538578676376356e-06, 0.12288829066471411, 1.0)
(0.1533929977694741, 1.3026663952778342e-05, 0.1473016980546375, 1.0)
(0.1656833739159028, 2.068585988797672e-05, 0.1716256791663596, 1.0)
(0.17712297710801905, 3.087801825843755e-05, 0.19584546700716696, 1.0)
(0.18786728732554484, 4.396499084062691e-05, 0.2199463578396686, 1.0)
(0.19802950859533486, 6.0308629411010845e-05, 0.24391372010837714, 1.0)
(0.20769510081357428, 8.027078574605544e-05, 0.2677330033224679, 1.0)
(0.21693045781865616, 0.00010421331162222673, 0.2913897468893246, 1.0)
(0.22578837914485933, 0.00013249805881599083, 0.31486958889350786, 1.0)
(0.23431167445160245, 0.00016548687910381376, 0.33815827481581706, 1.0)
(0.24253562503633297, 0.0002035416242621616, 0.3612416661871529, 1.0)
(0.2504897164340598, 0.0002470241460675004, 0.38410574917192586, 1.0)
(0.2581988897471611, 0.0002962962962962963, 0.40673664307580015, 1.0)
(0.2656844656620286, 0.00035171992672501526, 0.42912060877260894, 1.0)
(0.27296484008305655, 0.0004136568891301234, 0.45124405704532283, 1.0)
(0.28005601680560194, 0.00048246903528808676, 0.47309355683601007, 1.0)
(0.2869720215917757, 0.0005585182169753714, 0.4946558433997788, 1.0)
(0.293725228409004, 0.0006421662859684435, 0.5159178263577511, 1.0)
(0.30032661958503204, 0.000733775094043769, 0.53686659764418, 1.0)
(0.3067859955389482, 0.0008337064929778139, 0.5574894393428855, 1.0)
(0.3131121455425747, 0.0009423223345470445, 0.5777738314082511, 1.0)
(0.31931298801289854, 0.0010599844705279267, 0.5977074592660936, 1.0)
(0.32539568672798425, 0.0011870547526969264, 0.6172782212897929, 1.0)
(0.3313667478318056, 0.00132389503283051, 0.6364742361471414, 1.0)
(0.3372321013724501, 0.0014708671627051435, 0.6552838500134536, 1.0)
(0.3429971702850177, 0.001628332994097293, 0.6736956436465572, 1.0)
(0.34866692910423897, 0.001796654378783424, 0.6916984393193699, 1.0)
(0.3542459542160381, 0.0019761931685400034, 0.7092813076058534, 1.0)
(0.3597384670922507, 0.0021673112151434962, 0.7264335740162241, 1.0)
(0.3651483716701107, 0.0023703703703703703, 0.7431448254773941, 1.0)
(0.3704792868174742, 0.002585732485997091, 0.7594049166547072, 1.0)
(0.37573457465108967, 0.002813759413800122, 0.7752039761111298, 1.0)
(0.38091736533753123, 0.0030548130055559316, 0.7905324123001632, 1.0)
(0.3860305788964616, 0.0033092551130409873, 0.8053809193888326, 1.0)
(0.39107694443752145, 0.003577447588031753, 0.8197404829072211, 1.0)
(0.3960590171906697, 0.003859752282304694, 0.8336023852211194, 1.0)
(0.4009791936316524, 0.0041565310476362775, 0.846958210824467, 1.0)
(0.4058397249567139, 0.004468145735802971, 0.8597998514483723, 1.0)
(0.4106427291215469, 0.00479495819858124, 0.8721195109836108, 1.0)
(0.41539020162714857, 0.005137330287747548, 0.883909710213612, 1.0)
(0.42008402520840293, 0.005495623855078362, 0.8951632913550623, 1.0)
(0.4247259785588175, 0.005870200752350152, 0.9058734224033671, 1.0)
(0.42931774420607877, 0.00626142283133938, 0.9160336012803335, 1.0)
(0.4338609156373123, 0.006669651943822511, 0.9256376597815562, 1.0)
(0.4383570037596046, 0.007095249941576014, 0.9346797673211106, 1.0)
(0.44280744277004763, 0.007538578676376356, 0.9431544344712774, 1.0)
(0.4472135954999579, 0.008000000000000002, 0.9510565162951535, 1.0)
(0.45157675828971866, 0.008479875764223413, 0.9583812154701222, 1.0)
(0.45589816544366785, 0.00897856782082306, 0.965124085200289, 1.0)
(0.46017899330842227, 0.009496438021575411, 0.9712810319161138, 1.0)
(0.464420364012824, 0.010033848218256931, 0.9768483177596007, 1.0)
(0.4686233489032049, 0.01059116026264408, 0.9818225628535369, 1.0)
(0.4727889717037675, 0.01116873600651333, 0.9862007473534026, 1.0)
(0.47691821142849733, 0.011766937301641148, 0.989980213280707, 1.0)
(0.48101200506807296, 0.012386125999803998, 0.9931586661366362, 1.0)
(0.48507125007266594, 0.013026663952778343, 0.9957341762950345, 1.0)
(0.4890968066492663, 0.01368891301234065, 0.9977051801738729, 1.0)
(0.49308949989019313, 0.014373235030267393, 0.9990704811844932, 1.0)
(0.4970501217477084, 0.01507999185833503, 0.9998292504580527, 1.0)
(0.5009794328681196, 0.015809545348320027, 0.9999810273487268, 1.0)
(0.5048781642974013, 0.01656225735199885, 0.9995257197133659, 1.0)
(0.5087470190691683, 0.01733848972114797, 0.9984636039674339, 1.0)
(0.5125866736847688, 0.018138604307543858, 0.9967953249171991, 1.0)
(0.5163977794943222, 0.018962962962962963, 0.9945218953682734, 1.0)
(0.5201809639866857, 0.01981192753918176, 0.9916446955107427, 1.0)
(0.5239368319955838, 0.020685859887976728, 0.9881654720812594, 1.0)
(0.5276659668284659, 0.021585121861124306, 0.9840863373026044, 1.0)
(0.5313689313240572, 0.022510075310400977, 0.9794097676013659, 1.0)
(0.5350462688440333, 0.023461082087583202, 0.9741386021045102, 1.0)
(0.5386985042037638, 0.024438504044447452, 0.9682760409157589, 1.0)
(0.5423261445466404, 0.025442703032770204, 0.961825643172819, 1.0)
(0.5459296801661131, 0.026474040904327898, 0.9547913248866443, 1.0)
(0.5495095852792065, 0.027532879510897012, 0.9471773565640402, 1.0)
(0.5530663187549721, 0.028619580704254025, 0.9389883606150565, 1.0)
(0.5566003248010438, 0.02973450633617538, 0.9302293085467404, 1.0)
(0.5601120336112039, 0.030878018258437553, 0.9209055179449537, 1.0)
(0.5636018619766345, 0.03205047832281701, 0.9110226492460884, 1.0)
(0.5670702138633102, 0.03325224838109022, 0.9005867023006376, 1.0)
(0.570517480957798, 0.03448369028503366, 0.8896040127307095, 1.0)
(0.5739440431835514, 0.03574516588642377, 0.878081248083698, 1.0)
(0.5773502691896257, 0.03703703703703703, 0.8660254037844387, 1.0)
(0.5807365168135928, 0.03835966558864992, 0.8534437988883159, 1.0)
(0.5841031335203016, 0.03971341339303888, 0.8403440716378927, 1.0)
(0.587450456818008, 0.04109864230198038, 0.8267341748257635, 1.0)
(0.5907788146532823, 0.0425157141672509, 0.8126223709664456, 1.0)
(0.5940885257860046, 0.0439649908406269, 0.7980172272802396, 1.0)
(0.5973799001456604, 0.045446834173884856, 0.7829276104921029, 1.0)
(0.6006532391700641, 0.046961606018801214, 0.7673626814486971, 1.0)
(0.6039088361275575, 0.04850966822715245, 0.7513318895568735, 1.0)
(0.6071469764236599, 0.05009138265071504, 0.7348449670469757, 1.0)
(0.6103679378930738, 0.05170711114126543, 0.717911923064442, 1.0)
(0.6135719910778964, 0.05335721555058009, 0.7005430375932911, 1.0)
(0.6167593994928209, 0.055042057730435495, 0.6827488552151856, 1.0)
(0.6199304198780666, 0.05676199953260811, 0.6645401787078582, 1.0)
(0.6230853024407228, 0.05851740280887442, 0.6459280624867872, 1.0)
(0.6262242910851494, 0.060308629411010846, 0.6269238058941065, 1.0)
(0.6293476236330355, 0.06213604119079388, 0.6075389463388169, 1.0)
(0.6324555320336759, 0.06400000000000002, 0.5877852522924732, 1.0)
(0.6355482425649929, 0.06590086769040565, 0.5676747161445903, 1.0)
(0.6386259760257971, 0.0678390061137873, 0.5472195469221114, 1.0)
(0.6416889479197478, 0.06981477712192143, 0.5264321628773561, 1.0)
(0.6447373686314481, 0.07182854256658448, 0.5053251839489484, 1.0)
(0.6477714435950808, 0.07388066429955296, 0.4839114241003016, 1.0)
(0.6507913734559685, 0.07597150417260329, 0.4622038835403133, 1.0)
(0.6537973542254181, 0.07810142403751195, 0.44021574083098747, 1.0)
(0.6567895774291853, 0.08027078574605545, 0.41796034488678324, 1.0)
(0.6597682302498801, 0.08247995115001018, 0.3954512068705424, 1.0)
(0.6627334956636112, 0.08472928210115264, 0.37270199199091436, 1.0)
(0.6656855525711526, 0.0870191404512593, 0.3497265112062616, 1.0)
(0.6686245759238975, 0.08934988805210664, 0.3265387128400838, 1.0)
(0.6715507368448513, 0.09172188675547113, 0.30315267411304364, 1.0)
(0.6744642027449002, 0.09413549841312918, 0.279582592596744, 1.0)
(0.6773651374345779, 0.0965910848768573, 0.25584277759443586, 1.0)
(0.6802537012315447, 0.09908900799843198, 0.23194764145389804, 1.0)
(0.6831300510639732, 0.10162962962962964, 0.20791169081775931, 1.0)
(0.6859943405700354, 0.10421331162222675, 0.18374951781657037, 1.0)
(0.6888467201936644, 0.10684041582799977, 0.1594757912099809, 1.0)
(0.6916873372767638, 0.1095113040987252, 0.13510524748139313, 1.0)
(0.6945163361480208, 0.11222633828617953, 0.1106526818915011, 1.0)
(0.6973338582084779, 0.11498588024213914, 0.08613293949614632, 1.0)
(0.7001400420140049, 0.11779029181838055, 0.06156090613394323, 1.0)
(0.7029350233548074, 0.12063993486668025, 0.03695149938914491, 1.0)
(0.7057189353321013, 0.12353517123881463, 0.012319659535238529, 1.0)
(0.7084919084320762, 0.12647636278656021, 0.0, 1.0)
(0.7112540705972631, 0.12946387136169346, 0.0, 1.0)
(0.7140055472954167, 0.1324980588159908, 0.0, 1.0)
(0.7167464615860188, 0.13557928700122876, 0.0, 1.0)
(0.7194769341845014, 0.13870791776918376, 0.0, 1.0)
(0.7221970835242831, 0.14188431297163237, 0.0, 1.0)
(0.7249070258167122, 0.14510883446035086, 0.0, 1.0)
(0.7276068751089989, 0.14838184408711583, 0.0, 1.0)
(0.7302967433402214, 0.1517037037037037, 0.0, 1.0)
(0.732976740395481, 0.15507477516189097, 0.0, 1.0)
(0.7356469741582815, 0.15849542031345407, 0.0, 1.0)
(0.738307550561205, 0.1619660010101695, 0.0, 1.0)
(0.7409585736349484, 0.16548687910381382, 0.0, 1.0)
(0.7436001455557875, 0.16905841644616326, 0.0, 1.0)
(0.746232366691528, 0.17268097488899445, 0.0, 1.0)
(0.7488553356460046, 0.1763549162840838, 0.0, 1.0)
(0.7514691493021793, 0.1800806024832078, 0.0, 1.0)
(0.7540739028638984, 0.18385839533814294, 0.0, 1.0)
(0.7566696898963531, 0.18768865670066562, 0.0, 1.0)
(0.7592566023652966, 0.19157174842255237, 0.0, 1.0)
(0.7618347306750625, 0.19550803235557962, 0.0, 1.0)
(0.7644041637054289, 0.19949787035152397, 0.0, 1.0)
(0.7669649888473704, 0.20354162426216163, 0.0, 1.0)
(0.769517292037741, 0.20763965593926922, 0.0, 1.0)
(0.7720611577929232, 0.21179232723462318, 0.0, 1.0)
(0.7745966692414834, 0.21599999999999997, 0.0, 1.0)
(0.7771239081558686, 0.2202630360871761, 0.0, 1.0)
(0.7796429549831781, 0.22458179734792796, 0.0, 1.0)
(0.7821538888750429, 0.2289566456340322, 0.0, 1.0)
(0.7846567877166449, 0.23338794279726505, 0.0, 1.0)
(0.787151728154906, 0.23787605068940304, 0.0, 1.0)
(0.7896387856258745, 0.24242133116222267, 0.0, 1.0)
(0.7921180343813394, 0.24702414606750042, 0.0, 1.0)
(0.794589547514695, 0.25168485725701273, 0.0, 1.0)
(0.7970533969860857, 0.2564038265825361, 0.0, 1.0)
(0.7995096536468523, 0.2611814158958469, 0.0, 1.0)
(0.8019583872633048, 0.26601798704872176, 0.0, 1.0)
(0.8043996665398437, 0.2709139018929371, 0.0, 1.0)
(0.8068335591414519, 0.2758695222802693, 0.0, 1.0)
(0.8092601317155774, 0.28088521006249484, 0.0, 1.0)
(0.8116794499134278, 0.28596132709139016, 0.0, 1.0)
(0.8140915784106943, 0.29109823521873185, 0.0, 1.0)
(0.816496580927726, 0.2962962962962962, 0.0, 1.0)
(0.8188945202491695, 0.3015558721758599, 0.0, 1.0)
(0.8212854582430938, 0.3068773247091994, 0.0, 1.0)
(0.8236694558796142, 0.3122610157480909, 0.0, 1.0)
(0.8260465732490333, 0.31770730714431106, 0.0, 1.0)
(0.828416869579514, 0.3232165607496363, 0.0, 1.0)
(0.8307804032542971, 0.32878913841584306, 0.0, 1.0)
(0.8331372318284807, 0.3344254019947079, 0.0, 1.0)
(0.8354874120453728, 0.3401257133380072, 0.0, 1.0)
(0.8378309998524317, 0.3458904342975175, 0.0, 1.0)
(0.8401680504168059, 0.3517199267250152, 0.0, 1.0)
(0.8424986181404854, 0.3576145524722769, 0.0, 1.0)
(0.8448227566750782, 0.36357467339107885, 0.0, 1.0)
(0.8471405189362208, 0.36960065133319764, 0.0, 1.0)
(0.849451957117635, 0.3756928481504097, 0.0, 1.0)
(0.851757122704842, 0.38185162569449155, 0.0, 1.0)
(0.8540560664885428, 0.3880773458172196, 0.0, 1.0)
(0.8563488385776752, 0.39437037037037026, 0.0, 1.0)
(0.8586354884121575, 0.40073106120572033, 0.0, 1.0)
(0.8609160647753271, 0.40715978017504584, 0.0, 1.0)
(0.8631906158060839, 0.41365688913012344, 0.0, 1.0)
(0.8654591890107455, 0.42022274992272957, 0.0, 1.0)
(0.8677218312746247, 0.4268577244046407, 0.0, 1.0)
(0.869978588873335, 0.4335621744276334, 0.0, 1.0)
(0.8722295074838331, 0.44033646184348396, 0.0, 1.0)
(0.8744746321952062, 0.44718094850396894, 0.0, 1.0)
(0.8767140075192092, 0.4540959962608649, 0.0, 1.0)
(0.8789476774005625, 0.4610819669659483, 0.0, 1.0)
(0.881175685227012, 0.4681392224709954, 0.0, 1.0)
(0.883398073839164, 0.4752681246277827, 0.0, 1.0)
(0.8856148855400953, 0.48246903528808677, 0.0, 1.0)
(0.8878261621047484, 0.48974231630368403, 0.0, 1.0)
(0.8900319447891171, 0.497088329526351, 0.0, 1.0)
(0.8922322743392266, 0.5045074368078641, 0.0, 1.0)
(0.8944271909999159, 0.5120000000000001, 0.0, 1.0)
(0.8966167345234256, 0.5195663809545349, 0.0, 1.0)
(0.8988009441777984, 0.5272069415232452, 0.0, 1.0)
(0.9009798587550961, 0.5349220435579076, 0.0, 1.0)
(0.9031535165794373, 0.5427120489102985, 0.0, 1.0)
(0.9053219555148626, 0.5505773194321942, 0.0, 1.0)
(0.9074852129730301, 0.5585182169753714, 0.0, 1.0)
(0.9096433259207461, 0.5665351033916064, 0.0, 1.0)
(0.9117963308873357, 0.5746283405326759, 0.0, 1.0)
(0.9139442639718567, 0.5827982902503562, 0.0, 1.0)
(0.9160871608501616, 0.5910453143964237, 0.0, 1.0)
(0.9182250567818114, 0.599369774822655, 0.0, 1.0)
(0.9203579866168445, 0.6077720333808263, 0.0, 1.0)
(0.9224859848024048, 0.6162524519227144, 0.0, 1.0)
(0.9246090853892328, 0.6248113923000956, 0.0, 1.0)
(0.9267273220380225, 0.6334492163647465, 0.0, 1.0)
(0.928840728025648, 0.6421662859684436, 0.0, 1.0)
(0.9309493362512627, 0.6509629629629631, 0.0, 1.0)
(0.9330531792422754, 0.6598396092000814, 0.0, 1.0)
(0.9351522891602034, 0.6687965865315754, 0.0, 1.0)
(0.9372466978064098, 0.6778342568092212, 0.0, 1.0)
(0.9393364366277243, 0.6869529818847954, 0.0, 1.0)
(0.941421536721952, 0.6961531236100744, 0.0, 1.0)
(0.943502028843273, 0.7054350438368349, 0.0, 1.0)
(0.945577943407535, 0.7147991044168531, 0.0, 1.0)
(0.9476493104974406, 0.7242456672019059, 0.0, 1.0)
(0.9497161598676341, 0.7337750940437691, 0.0, 1.0)
(0.9517785209496884, 0.7433877467942194, 0.0, 1.0)
(0.9538364228569947, 0.7530839873050335, 0.0, 1.0)
(0.955889894389557, 0.7628641774279876, 0.0, 1.0)
(0.9579389640386956, 0.7727286790148584, 0.0, 1.0)
(0.9599836599916586, 0.7826778539174223, 0.0, 1.0)
(0.9620240101361459, 0.7927120639874559, 0.0, 1.0)
(0.9640600420647474, 0.8028316710767353, 0.0, 1.0)
(0.9660917830792959, 0.8130370370370371, 0.0, 1.0)
(0.9681192601951395, 0.8233285237201378, 0.0, 1.0)
(0.9701425001453319, 0.833706492977814, 0.0, 1.0)
(0.9721615293847449, 0.8441713066618419, 0.0, 1.0)
(0.9741763740941048, 0.8547233266239982, 0.0, 1.0)
(0.9761870601839527, 0.8653629147160593, 0.0, 1.0)
(0.9781936132985326, 0.8760904327898016, 0.0, 1.0)
(0.9801960588196069, 0.886906242697002, 0.0, 1.0)
(0.9821944218702024, 0.8978107062894363, 0.0, 1.0)
(0.9841887273182883, 0.9088041854188811, 0.0, 1.0)
(0.9861789997803863, 0.9198870419371131, 0.0, 1.0)
(0.9881652636251156, 0.9310596376959087, 0.0, 1.0)
(0.9901475429766743, 0.9423223345470444, 0.0, 1.0)
(0.992125861718258, 0.9536754943422966, 0.0, 1.0)
(0.9941002434954168, 0.965119478933442, 0.0, 1.0)
(0.9960707117193528, 0.9766546501722566, 0.0, 1.0)
(0.9980372895701588, 0.9882813699105171, 0.0, 1.0)
(1.0, 1.0, 0.0, 1.0)
