{
    "author": "",
    "baseConstants": [],
    "bkgOpacity": 0.20000000298023224,
    "contourLevelModifer": 0.5,
    "customConstants": [],
    "description": "",
    "histOpacity": 1,
    "histograms": {},
    "histHeightRotation": 0.0,
    "isoRotationX": 180,
    "isoRotationY": 0,
    "name": "base1",
    "normalizationMode": "local",
    "normalizationModifier": 0.5,
    "particles": [],
    "partitionModifer": 0.5,
    "samplingCamera": {
        "view": "[1.000000,0.000000,0.000000,-8.100000;0.000000,1.000000,0.000000,2.000000;0.000000,0.000000,1.000000,0.000000;0.000000,0.000000,0.000000,1.000000]",
        "zoom": 0.0070000000000000001
    },
    "scaledScreenResolutionX" : 1,
    "scaledScreenResolutionY" : 1,
    "selectedDistribution": "",
    "selectedFilter": "",
    "selectedParticleType": "ions",
    "selectedTimeSeries": "",
    "selectedTimeStep": 0,
    "spatialScalingModifier": 0.5,
    "timeSeries": {},
    "type": "distribution",
    "uiOffsetA": -1, 
    "uiOffsetB": -1, 
    "uiOffsetC": -1, 
    "uiOffsetD": -1, 
    "userDataDescription": ""
}
