\relax 
\@writefile{toc}{\contentsline {subsection}{\numberline {0.1}Expected Format}{1}}
\@writefile{toc}{\contentsline {subsection}{\numberline {0.2}Preprocessing}{2}}
\@writefile{toc}{\contentsline {subsubsection}{\numberline {0.2.1}Grid and Geometry}{2}}
\@writefile{toc}{\contentsline {subsubsection}{\numberline {0.2.2}Particle Data}{3}}
\@writefile{toc}{\contentsline {subsection}{\numberline {0.3}Register the Format and Location}{4}}
